GO_Reactome_enrich_Imputed_proteins
…
# View the top enriched GO terms as a tibble 
GO_Tibble <- go_enrichment %>% as_tibble()
GO_Tibble

# A tibble: 57 × 9
   ID      Description GeneRatio BgRatio   pvalue p.adjust   qvalue geneID Count
   <chr>   <chr>       <chr>     <chr>      <dbl>    <dbl>    <dbl> <chr>  <int>
 1 GO:000… cytoplasmi… 70/473    104/31… 2.49e-35 6.60e-32 6.44e-32 HNRNP…    70
 2 GO:000… translation 108/473   317/31… 5.58e-20 7.39e-17 7.22e-17 VIM/H…   108
 3 GO:004… peptide bi… 109/473   324/31… 1.11e-19 9.78e-17 9.55e-17 VIM/H…   109
 4 GO:004… ribosome b… 58/473    118/31… 1.84e-19 1.22e-16 1.19e-16 NPM1/…    58
 5 GO:000… RNA proces… 114/473   356/31… 1.13e-18 5.99e-16 5.85e-16 HNRNP…   114
 6 GO:000… rRNA proce… 46/473    85/3192 9.77e-18 4.31e-15 4.21e-15 DDX17…    46
 7 GO:001… rRNA metab… 50/473    99/3192 1.63e-17 6.18e-15 6.03e-15 NCL/D…    50
 8 GO:004… amide bios… 113/473   374/31… 2.56e-16 8.49e-14 8.29e-14 VIM/H…   113
 9 GO:000… peptide me… 114/473   383/31… 6.37e-16 1.87e-13 1.83e-13 VIM/H…   114
10 GO:003… cellular m… 118/473   407/31… 1.55e-15 4.11e-13 4.02e-13 VIM/H…   118
# ℹ 47 more rows
…
# View the top enriched GO terms as a tibble 
GO_Tibble <- go_enrichment %>% as_tibble()
GO_Tibble

# A tibble: 25 × 9
   ID      Description GeneRatio BgRatio   pvalue p.adjust   qvalue geneID Count
   <chr>   <chr>       <chr>     <chr>      <dbl>    <dbl>    <dbl> <chr>  <int>
 1 GO:002… cytosolic … 64/487    78/3283 3.26e-41 1.41e-38 1.32e-38 RPS27…    64
 2 GO:004… ribosomal … 78/487    141/32… 1.36e-30 2.94e-28 2.74e-28 RPS27…    78
 3 GO:000… ribosome    80/487    155/32… 1.41e-28 2.03e-26 1.90e-26 RPS27…    80
 4 GO:199… ribonucleo… 133/487   367/32… 6.35e-28 6.85e-26 6.40e-26 VIM/H…   133
 5 GO:002… cytosolic … 35/487    42/3283 3.30e-23 2.85e-21 2.66e-21 RPL4/…    35
 6 GO:002… cytosolic … 29/487    36/3283 1.34e-18 9.66e-17 9.02e-17 RPS27…    29
 7 GO:001… large ribo… 44/487    84/3283 2.95e-16 1.82e-14 1.70e-14 RPL4/…    44
 8 GO:001… small ribo… 34/487    58/3283 9.41e-15 5.08e-13 4.74e-13 RPS27…    34
 9 GO:004… polysomal … 17/487    23/3283 2.69e-10 1.29e- 8 1.21e- 8 RPL7A…    17
10 GO:000… polysome    23/487    41/3283 7.99e-10 3.45e- 8 3.22e- 8 VIM/R…    23
# ℹ 15 more rows
…
