WPCNA_shallow_split
…
# Plotting LogFC between DE and non DE proteins 
Toptable_Modules$DE_or_Not <- Toptable_Modules$P.Value < 0.05

# Calculate percentage of DE genes for each module
DE_Mod_result <- Toptable_Modules %>%
  group_by(Modules) %>%
  summarize(
    total_genes = n(),
    DE_genes = sum(P.Value < 0.05),
    percent_DE = (DE_genes / total_genes) * 100
  )

print(DE_Mod_result)

# A tibble: 21 × 4
   Modules       total_genes DE_genes percent_DE
   <chr>               <int>    <int>      <dbl>
 1 black                  59        0      0    
 2 blue                   32        4     12.5  
 3 brown                  42        1      2.38 
 4 cyan                  669        1      0.149
 5 darkgreen             218        2      0.917
 6 darkorange            416       88     21.2  
 7 darkred               216       29     13.4  
 8 darkturquoise         251        2      0.797
 9 green                 592      114     19.3  
10 grey                  197        1      0.508
# ℹ 11 more rows
…
